{
    "photos": {
        "page": 1,
        "pages": 12459,
        "perpage": 20,
        "total": "249174",
        "photo": [
                  {
                  "id": "42246828484",
                  "owner": "32889236@N02",
                  "secret": "888ac97f4a",
                  "server": "1772",
                  "farm": 2,
                  "title": "Different angle",
                  "ispublic": 1,
                  "isfriend": 0,
                  "isfamily": 0
                  },
                  {
                  "id": "42916019912",
                  "owner": "8773698@N03",
                  "secret": "b26b4e6002",
                  "server": "888",
                  "farm": 1,
                  "title": "Carnage Gwen",
                  "ispublic": 1,
                  "isfriend": 0,
                  "isfamily": 0
                  },
                  {
                  "id": "42915834172",
                  "owner": "142653167@N04",
                  "secret": "6e62f01619",
                  "server": "1811",
                  "farm": 2,
                  "title": "piano",
                  "ispublic": 1,
                  "isfriend": 0,
                  "isfamily": 0
                  },
                  {
                  "id": "42246588294",
                  "owner": "142653167@N04",
                  "secret": "91d79829f4",
                  "server": "1783",
                  "farm": 2,
                  "title": "Lisa",
                  "ispublic": 1,
                  "isfriend": 0,
                  "isfamily": 0
                  },
                  {
                  "id": "28096281327",
                  "owner": "95481709@N06",
                  "secret": "b8dbf3ea5c",
                  "server": "1777",
                  "farm": 2,
                  "title": "Sunset over Sydney, Australia",
                  "ispublic": 1,
                  "isfriend": 0,
                  "isfamily": 0
                  },
                  {
                  "id": "41155103630",
                  "owner": "140021971@N03",
                  "secret": "ee9d11a83d",
                  "server": "1761",
                  "farm": 2,
                  "title": "Sydney Olympic - Marconi Stallions",
                  "ispublic": 1,
                  "isfriend": 0,
                  "isfamily": 0
                  },
                  {
                  "id": "28096257217",
                  "owner": "141029285@N02",
                  "secret": "ae77b60642",
                  "server": "1825",
                  "farm": 2,
                  "title": "Sydney XPLORER",
                  "ispublic": 1,
                  "isfriend": 0,
                  "isfamily": 0
                  },
                  {
                  "id": "42063597535",
                  "owner": "29029178@N03",
                  "secret": "930f493635",
                  "server": "1777",
                  "farm": 2,
                  "title": "Ex Tramway Reserve, Watsons Bay, Sydney, NSW.",
                  "ispublic": 1,
                  "isfriend": 0,
                  "isfamily": 0
                  },
                  {
                  "id": "42063594415",
                  "owner": "29029178@N03",
                  "secret": "c8fd9a09d1",
                  "server": "900",
                  "farm": 1,
                  "title": "Ex Tramway Reserve, Watsons Bay, Sydney, NSW.",
                  "ispublic": 1,
                  "isfriend": 0,
                  "isfamily": 0
                  },
                  {
                  "id": "28096209997",
                  "owner": "32889236@N02",
                  "secret": "ac1f6c7a6e",
                  "server": "1821",
                  "farm": 2,
                  "title": "Bondi",
                  "ispublic": 1,
                  "isfriend": 0,
                  "isfamily": 0
                  },
                  {
                  "id": "42965375331",
                  "owner": "29029178@N03",
                  "secret": "3ac1560634",
                  "server": "1838",
                  "farm": 2,
                  "title": "Rosette, 24 Bayswater Road, Potts Point, Sydney, NSW.",
                  "ispublic": 1,
                  "isfriend": 0,
                  "isfamily": 0
                  },
                  {
                  "id": "29092639798",
                  "owner": "29029178@N03",
                  "secret": "5841364686",
                  "server": "1828",
                  "farm": 2,
                  "title": "Rosette, Darlinghurst, Sydney, NSW.",
                  "ispublic": 1,
                  "isfriend": 0,
                  "isfamily": 0
                  },
                  {
                  "id": "29092615578",
                  "owner": "131712530@N08",
                  "secret": "f0f04f2377",
                  "server": "1763",
                  "farm": 2,
                  "title": "Call a trusted and honest locksmith",
                  "ispublic": 1,
                  "isfriend": 0,
                  "isfamily": 0
                  },
                  {
                  "id": "42063441315",
                  "owner": "74748751@N05",
                  "secret": "08f5deb787",
                  "server": "1795",
                  "farm": 2,
                  "title": "Daybreak || Richmond Lowlands || Sydney",
                  "ispublic": 1,
                  "isfriend": 0,
                  "isfamily": 0
                  },
                  {
                  "id": "42063407675",
                  "owner": "100902742@N07",
                  "secret": "24c12204e5",
                  "server": "1830",
                  "farm": 2,
                  "title": "Blue Tongue Lizard.",
                  "ispublic": 1,
                  "isfriend": 0,
                  "isfamily": 0
                  },
                  {
                  "id": "29092585588",
                  "owner": "91846820@N00",
                  "secret": "63009396cf",
                  "server": "1811",
                  "farm": 2,
                  "title": "bridge crossing  #0433",
                  "ispublic": 1,
                  "isfriend": 0,
                  "isfamily": 0
                  },
                  {
                  "id": "42246087364",
                  "owner": "131712530@N08",
                  "secret": "2c89780fd1",
                  "server": "876",
                  "farm": 1,
                  "title": "Professionals who solve all electrical problems",
                  "ispublic": 1,
                  "isfriend": 0,
                  "isfamily": 0
                  },
                  {
                  "id": "42915281872",
                  "owner": "68349400@N04",
                  "secret": "47acc83d92",
                  "server": "1828",
                  "farm": 2,
                  "title": "Vivid Sydney 2018 -  Light, Music & Ideas Festival (1)",
                  "ispublic": 1,
                  "isfriend": 0,
                  "isfamily": 0
                  },
                  {
                  "id": "42246032834",
                  "owner": "68349400@N04",
                  "secret": "6400d0ab99",
                  "server": "1761",
                  "farm": 2,
                  "title": "Vivid Sydney 2018 -  Light, Music & Ideas Festival (2)",
                  "ispublic": 1,
                  "isfriend": 0,
                  "isfamily": 0
                  },
                  {
                  "id": "42246027594",
                  "owner": "68349400@N04",
                  "secret": "b7e143cb53",
                  "server": "1786",
                  "farm": 2,
                  "title": "Vivid Sydney 2018 -  Light, Music & Ideas Festival (3)",
                  "ispublic": 1,
                  "isfriend": 0,
                  "isfamily": 0
                  }
                  ]
    },
    "stat": "ok"
}
